{
  "type": "object",
  "required": [
    "type",
    "version",
    "quorum",
    "shards",
    "timestamp"
  ],
  "properties": {
    "type": {
      "type": "string",
      "pattern": "^dark-crystal/root$"
    },
    "version": {
      "type": "string",
      "pattern": "^1.0.0$"
    },
    "name": {
      "type": "string"
    },
    "quorum": {
      "type": "integer",
      "minimum": 2,
      "maximum": 255
    },
    "shards": {
      "type": "integer",
      "minimum": 2,
      "maximum": 255
    },
    "tool": {
      "type": "string"
    },
    "tag": {
      "type": "string"
    },
    "timestamp": {
      "type": "integer"
    }
  }
}
