{
  "type": "object",
  "required": [
    "type",
    "version",
    "root",
    "shard",
    "recipient",
    "timestamp"
  ],
  "properties": {
    "type": {
      "type": "string",
      "pattern": "^dark-crystal/shard$"
    },
    "version": {
      "type": "string",
      "pattern": "^1.0.0$"
    },
    "root": {
      "type": "string",
      "pattern": "^[0-9a-fA-F]{64}$"
    },
    "shard": {
      "type": "string",
      "pattern": "^[0-9a-fA-F]+$",
      "minLength": 64
    },
    "recipient": {
      "type": "string",
      "pattern": "^[0-9a-fA-F]{64}$"
    },
    "timestamp": {
      "type": "integer"
    }
  }
}
